{"count":46,"next":"http://127.0.0.1:8000/api/v1/exploitation/clients/?page=2&page_size=5","previous":null,"results":[{"id":1,"code":"CL0001","statut":"EXISTANTE NON EXERCANTE","forme_juridique":"","type_personne":"PM","capital_social":"0.000","valeur_nominale":"0.000","nombre_part":"0","raison_sociale":"zainb","denomination_commerciale":"","assujetti_tva":true,"domicilie_sms":false,"matricule_fiscal":"","identifiant_unique":"","code_postal":"","adresse":"","ville":"kef","pays":"TN","is_active":true,"created_at":"2025-08-15T00:08:47.809461Z","updated_at":"2025-08-15T00:08:57.480658Z"},{"id":2,"code":"CL0002","statut":"EXERCANTE","forme_juridique":"","type_personne":"PM","capital_social":"0.000","valeur_nominale":"0.000","nombre_part":"0","raison_sociale":"lyn","denomination_commerciale":"","assujetti_tva":true,"domicilie_sms":false,"matricule_fiscal":"","identifiant_unique":"","code_postal":"","adresse":"","ville":"ariana","pays":"TN","is_active":true,"created_at":"2025-08-15T00:08:47.820596Z","updated_at":"2025-08-15T00:08:47.820596Z"},{"id":3,"code":"CL0003","statut":"NOUVELLE CREATION","forme_juridique":"PP","type_personne":"PP","capital_social":"0.000","valeur_nominale":"0.000","nombre_part":"0","raison_sociale":"TSEED_1755277215_12878 A","denomination_commerciale":"","assujetti_tva":true,"domicilie_sms":false,"matricule_fiscal":"","identifiant_unique":"","code_postal":"","adresse":"","ville":"","pays":"TN","is_active":true,"created_at":"2025-08-15T17:00:20.944700Z","updated_at":"2025-08-15T17:00:20.944700Z"},{"id":4,"code":"CL0004","statut":"EXISTANTE NON EXERCANTE","forme_juridique":"SUARL","type_personne":"PM","capital_social":"0.000","valeur_nominale":"0.000","nombre_part":"0","raison_sociale":"TSEED_1755277215_12878 B","denomination_commerciale":"","assujetti_tva":true,"domicilie_sms":false,"matricule_fiscal":"","identifiant_unique":"","code_postal":"","adresse":"","ville":"","pays":"TN","is_active":true,"created_at":"2025-08-15T17:00:21.123807Z","updated_at":"2025-08-15T17:00:21.123807Z"},{"id":5,"code":"CL0005","statut":"EXERCANTE","forme_juridique":"ASSOCIATION","type_personne":"AS","capital_social":"0.000","valeur_nominale":"0.000","nombre_part":"0","raison_sociale":"TSEED_1755277215_12878 C","denomination_commerciale":"","assujetti_tva":true,"domicilie_sms":false,"matricule_fiscal":"","identifiant_unique":"","code_postal":"","adresse":"","ville":"","pays":"TN","is_active":true,"created_at":"2025-08-15T17:00:21.295354Z","updated_at":"2025-08-15T17:00:21.295354Z"}]}