{"count":22,"next":"http://127.0.0.1:8000/api/v1/exploitation/clients/?page=3&page_size=5","previous":"http://127.0.0.1:8000/api/v1/exploitation/clients/?page_size=5","results":[{"id":6,"code":"CL0006","statut":"NOUVELLE CREATION","forme_juridique":"SUARL","type_personne":"PM","capital_social":"0.000","valeur_nominale":"0.000","nombre_part":"0","raison_sociale":"TSEED_1755277215_12878 MAP1","denomination_commerciale":"","assujetti_tva":true,"domicilie_sms":false,"matricule_fiscal":"","identifiant_unique":"","code_postal":"","adresse":"","ville":"","pays":"TN","is_active":true,"created_at":"2025-08-15T17:00:22.815870Z","updated_at":"2025-08-15T17:00:22.815870Z"},{"id":7,"code":"CL0007","statut":"EXISTANTE NON EXERCANTE","forme_juridique":"","type_personne":"PM","capital_social":"0.000","valeur_nominale":"0.000","nombre_part":"0","raison_sociale":"TSEED_1755277215_12878 MAP2","denomination_commerciale":"","assujetti_tva":true,"domicilie_sms":false,"matricule_fiscal":"","identifiant_unique":"","code_postal":"","adresse":"","ville":"","pays":"TN","is_active":true,"created_at":"2025-08-15T17:00:23.574120Z","updated_at":"2025-08-15T17:00:23.574120Z"},{"id":8,"code":"CL0008","statut":"EXERCANTE","forme_juridique":"","type_personne":"PM","capital_social":"0.000","valeur_nominale":"0.000","nombre_part":"0","raison_sociale":"TSEED_1755277215_12878 MAP3","denomination_commerciale":"","assujetti_tva":true,"domicilie_sms":false,"matricule_fiscal":"","identifiant_unique":"","code_postal":"","adresse":"","ville":"","pays":"TN","is_active":true,"created_at":"2025-08-15T17:00:24.175680Z","updated_at":"2025-08-15T17:00:24.175680Z"},{"id":9,"code":"CL0009","statut":"EXERCANTE","forme_juridique":"SUARL","type_personne":"PM","capital_social":"1000.500","valeur_nominale":"10.000","nombre_part":"7","raison_sociale":"TSEED_1755277215_12878 NUM","denomination_commerciale":"","assujetti_tva":false,"domicilie_sms":true,"matricule_fiscal":"","identifiant_unique":"","code_postal":"","adresse":"","ville":"","pays":"FR","is_active":true,"created_at":"2025-08-15T17:00:25.413153Z","updated_at":"2025-08-15T17:00:25.413153Z"},{"id":10,"code":"CL0010","statut":"EXERCANTE","forme_juridique":"","type_personne":"PM","capital_social":"0.000","valeur_nominale":"0.000","nombre_part":"0","raison_sociale":"TSEED_1755277215_12878 AUTOCODE","denomination_commerciale":"","assujetti_tva":true,"domicilie_sms":false,"matricule_fiscal":"","identifiant_unique":"","code_postal":"","adresse":"","ville":"Tunis","pays":"TN","is_active":true,"created_at":"2025-08-15T17:00:26.419907Z","updated_at":"2025-08-15T17:00:27.415786Z"}]}