{"count":38,"next":"http://127.0.0.1:8000/api/v1/exploitation/clients/?page=2&page_size=1","previous":null,"results":[{"id":1,"code":"CL0001","statut":"EXISTANTE NON EXERCANTE","forme_juridique":"","type_personne":"PM","capital_social":"0.000","valeur_nominale":"0.000","nombre_part":"0","raison_sociale":"zainb","denomination_commerciale":"","assujetti_tva":true,"domicilie_sms":false,"matricule_fiscal":"","identifiant_unique":"","code_postal":"","adresse":"","ville":"kef","pays":"TN","is_active":true,"created_at":"2025-08-15T00:08:47.809461Z","updated_at":"2025-08-15T00:08:57.480658Z"}]}